%YAML 1.1
%TAG !u! tag:unity3d.com,2011:
--- !u!1045 &1
EditorBuildSettings:
  m_ObjectHideFlags: 0
  serializedVersion: 2
  m_Scenes:
  - enabled: 1
    path: Assets/G/Menu.unity
    guid: cb1f4e39eda38564994d97ec2769a00e
  - enabled: 1
    path: Assets/G/Main.unity
    guid: 37fd3d5bcb920224381aaa48cb1ca3a9
  m_configObjects: {}
