%YAML 1.1
%TAG !u! tag:unity3d.com,2011:
--- !u!114 &11400000
MonoBehaviour:
  m_ObjectHideFlags: 0
  m_CorrespondingSourceObject: {fileID: 0}
  m_PrefabInstance: {fileID: 0}
  m_PrefabAsset: {fileID: 0}
  m_GameObject: {fileID: 0}
  m_Enabled: 1
  m_EditorHideFlags: 0
  m_Script: {fileID: 11500000, guid: d5c85ade4b39dbc42939896879cd7184, type: 3}
  m_Name: 12
  m_EditorClassIdentifier: 
  dialogID: 12
  message:
  - text: ' GOD: Okay and that''s it for the first part.'
    sprite: {fileID: 21300000, guid: 8e32a7655573f234ab7a599e15f90bf4, type: 3}
    trigger: 0
    havestring: 0
    reveal: 0
    eva: 0
    end: 0
    replacement: 
  - text: ' GOD: So for this next part you will need to pick between two choices.'
    sprite: {fileID: 21300000, guid: 71973753b4d860d4fb4f68b427784171, type: 3}
    trigger: 0
    havestring: 0
    reveal: 0
    eva: 0
    end: 0
    replacement: 
  - text: ' GOD: Here is the first question.'
    sprite: {fileID: 21300000, guid: 9d062246a83bd4d40a1e6590b17d757f, type: 3}
    trigger: 0
    havestring: 0
    reveal: 0
    eva: 0
    end: 0
    replacement: 
  eventID: 1
  eventCase: 0
  Eventtext: 'GOD: Do you think poor people should be helped?

    1. {r}

    2.
    Yes, being poor is not what they choose so we must give them resource to make
    it easier to get on the feet.

    Please insert 1 or 2.'
  replace: 1
  truetext: Being poor is a habit, As those who capable we should be helping them
    change.
  falsetext: Being poor is a habit, it's depend on how they are able to change their
    habit or not.
  modifier: str
  mamount: 4
  Evensprite: {fileID: 21300000, guid: 9d062246a83bd4d40a1e6590b17d757f, type: 3}
  addamount: 2
  keywords:
  - EventKeyword:
    - 1
    - ne
    neutral: 0
    addtype: int
    delay: 1
    minus: 0
  - EventKeyword:
    - 2
    - wo
    neutral: 0
    addtype: mor
    delay: 1
    minus: 0
  falseInput: 'GOD: I ask only 1 or 2 don''t you under stand!?'
