%YAML 1.1
%TAG !u! tag:unity3d.com,2011:
--- !u!114 &11400000
MonoBehaviour:
  m_ObjectHideFlags: 0
  m_CorrespondingSourceObject: {fileID: 0}
  m_PrefabInstance: {fileID: 0}
  m_PrefabAsset: {fileID: 0}
  m_GameObject: {fileID: 0}
  m_Enabled: 1
  m_EditorHideFlags: 0
  m_Script: {fileID: 11500000, guid: d5c85ade4b39dbc42939896879cd7184, type: 3}
  m_Name: 9
  m_EditorClassIdentifier: 
  dialogID: 9
  message:
  - text: ' GOD: Interesting choice!'
    sprite: {fileID: 21300000, guid: 028a6c1af40c4b244a902ede713397e7, type: 3}
    trigger: 0
    havestring: 0
    reveal: 0
    eva: 0
    end: 0
    replacement: 
  - text: ' GOD: Ummm...'
    sprite: {fileID: 21300000, guid: 71973753b4d860d4fb4f68b427784171, type: 3}
    trigger: 0
    havestring: 0
    reveal: 0
    eva: 0
    end: 0
    replacement: 
  - text: ' GOD: Uhh....'
    sprite: {fileID: 21300000, guid: 71973753b4d860d4fb4f68b427784171, type: 3}
    trigger: 0
    havestring: 0
    reveal: 0
    eva: 0
    end: 0
    replacement: 
  - text: ' GOD: Honestly I''m out of question.. he heh.'
    sprite: {fileID: 21300000, guid: 8e32a7655573f234ab7a599e15f90bf4, type: 3}
    trigger: 0
    havestring: 0
    reveal: 0
    eva: 0
    end: 0
    replacement: 
  - text: ' GOD: OH! OH! I got one more!'
    sprite: {fileID: 21300000, guid: aa583a29f700f6742b8c5358c8b27d97, type: 3}
    trigger: 0
    havestring: 0
    reveal: 0
    eva: 0
    end: 0
    replacement: 
  - text: ' GOD: Sooo which kind of skills you wanna have?'
    sprite: {fileID: 21300000, guid: 9d062246a83bd4d40a1e6590b17d757f, type: 3}
    trigger: 0
    havestring: 0
    reveal: 0
    eva: 0
    end: 0
    replacement: 
  eventID: 1
  eventCase: 4
  Eventtext: Please type the skill that you want.
  replace: 0
  truetext: 
  falsetext: 
  modifier: 
  mamount: 0
  Evensprite: {fileID: 21300000, guid: 9d062246a83bd4d40a1e6590b17d757f, type: 3}
  addamount: 0
  keywords: []
  falseInput: 
